(footprint "RFM69" (version 20221018) (generator pcbnew)
  (layer "F.Cu")
  (fp_text reference "RFM69" (at 0 -9) (layer "F.SilkS")
      (effects (font (size 1.5 1.5) (thickness 0.15)))
    (tstamp ececb191-754c-419d-80d4-d88b8a0fa85b)
  )
  (fp_text value "VAL**" (at 0 9) (layer "F.SilkS")
      (effects (font (size 1.5 1.5) (thickness 0.15)))
    (tstamp 4a6bf96e-a5b7-43d1-b998-3a8874860575)
  )
  (fp_line (start -8 -8) (end -8 7.5)
    (stroke (width 0.15) (type solid)) (layer "F.SilkS") (tstamp 9568d20c-f5bb-42ba-9ebd-f82252b82943))
  (fp_line (start -8 7.5) (end 8 7.5)
    (stroke (width 0.15) (type solid)) (layer "F.SilkS") (tstamp 21c31786-fffb-412c-a0a8-945e01c0e96a))
  (fp_line (start 8 -8) (end -8 -8)
    (stroke (width 0.15) (type solid)) (layer "F.SilkS") (tstamp 5c1d0bb8-e5e2-4255-9861-2a627f57e1a4))
  (fp_line (start 8 7.5) (end 8 -8)
    (stroke (width 0.15) (type solid)) (layer "F.SilkS") (tstamp 22b2d70a-61ad-439a-9a9f-89647a160cbe))
  (pad "1" smd circle (at 8 6) (size 1.524 1.524) (layers "F.Cu" "F.Paste" "F.Mask") (tstamp 94aa4dd7-ff7e-4159-ae61-602b5664325c))
  (pad "2" smd circle (at 8 4) (size 1.524 1.524) (layers "F.Cu" "F.Paste" "F.Mask") (tstamp 1dfd7445-69b4-4ac2-b108-38ceb5559918))
  (pad "3" smd circle (at 8 2) (size 1.524 1.524) (layers "F.Cu" "F.Paste" "F.Mask") (tstamp 4d57fea5-13ea-4ed0-ba04-251c23600aac))
  (pad "4" smd circle (at 8 0) (size 1.524 1.524) (layers "F.Cu" "F.Paste" "F.Mask") (tstamp 5c3b5ae8-d184-485c-be06-a483f7266d40))
  (pad "5" smd circle (at 8 -2) (size 1.524 1.524) (layers "F.Cu" "F.Paste" "F.Mask") (tstamp ade9a8c2-a2c9-46f8-949c-00ceb621e7fb))
  (pad "6" smd circle (at 8 -4) (size 1.524 1.524) (layers "F.Cu" "F.Paste" "F.Mask") (tstamp 24cea36e-7120-49a1-b6a3-e15358778ee8))
  (pad "7" smd circle (at 8 -6) (size 1.524 1.524) (layers "F.Cu" "F.Paste" "F.Mask") (tstamp 8764fc56-b859-422c-96c6-e83a26531784))
  (pad "8" smd circle (at -8 -6) (size 1.524 1.524) (layers "F.Cu" "F.Paste" "F.Mask") (tstamp 605351da-2680-438e-8963-e7b737946458))
  (pad "9" smd circle (at -8 -4) (size 1.524 1.524) (layers "F.Cu" "F.Paste" "F.Mask") (tstamp 2a033782-32a3-48c6-95fb-7f1f5d65e4a6))
  (pad "10" smd circle (at -8 -2) (size 1.524 1.524) (layers "F.Cu" "F.Paste" "F.Mask") (tstamp 3c6eca71-f14e-4814-965f-561e8b8ea5a2))
  (pad "11" smd circle (at -8 0) (size 1.524 1.524) (layers "F.Cu" "F.Paste" "F.Mask") (tstamp 7b974b8b-f652-451d-bf91-2098e525a906))
  (pad "12" smd circle (at -8 2) (size 1.524 1.524) (layers "F.Cu" "F.Paste" "F.Mask") (tstamp 9c09f75c-361e-49f4-95c6-bfe62badef31))
  (pad "13" smd circle (at -8 4) (size 1.524 1.524) (layers "F.Cu" "F.Paste" "F.Mask") (tstamp b6ac11da-cdd7-4584-b73c-1aa5dad492f7))
  (pad "14" smd circle (at -8 6) (size 1.524 1.524) (layers "F.Cu" "F.Paste" "F.Mask") (tstamp ef08c4e5-1b08-4daf-97a0-ed54bdfa8950))
)
